…
Lastly, apply this function to the columns of dataset using a map
statement.

``` r
output = map_df(iris_with_missing, replaceNA)

output
```

    ## # A tibble: 150 x 5
    ##    Sepal.Length Sepal.Width Petal.Length Petal.Width Species
    ##           <dbl>       <dbl>        <dbl>       <dbl> <chr>  
    ##  1         5.1          3.5         1.4         0.2  setosa 
    ##  2         4.9          3           1.4         0.2  setosa 
    ##  3         4.7          3.2         1.3         0.2  setosa 
    ##  4         4.6          3.1         1.5         1.19 setosa 
    ##  5         5            3.6         1.4         0.2  setosa 
    ##  6         5.4          3.9         1.7         0.4  setosa 
    ##  7         5.82         3.4         1.4         0.3  setosa 
    ##  8         5            3.4         1.5         0.2  setosa 
    ##  9         4.4          2.9         1.4         0.2  setosa 
    ## 10         4.9          3.1         3.77        0.1  setosa 
    ## # … with 140 more rows
…
p2_df
```

    ## # A tibble: 160 x 5
    ##    full_id   group      id  week  data
    ##    <chr>     <chr>   <dbl> <dbl> <dbl>
    ##  1 control_1 control     1     1  0.2 
    ##  2 control_1 control     1     2 -1.31
    ##  3 control_1 control     1     3  0.66
    ##  4 control_1 control     1     4  1.96
    ##  5 control_1 control     1     5  0.23
    ##  6 control_1 control     1     6  1.09
    ##  7 control_1 control     1     7  0.05
    ##  8 control_1 control     1     8  1.94
    ##  9 control_2 control     2     1  1.13
    ## 10 control_2 control     2     2 -0.88
    ## # … with 150 more rows
…
<!-- end list -->

``` r
beta_1 = list(1, 2, 3, 4, 5, 6)

df_2 = 
  map(beta_1, ~ generate_df(.x, generate_xy)) %>% 
  bind_rows()

df_2
```

    ## # A tibble: 60 x 4
    ##    truth data              estimate p_value
    ##    <dbl> <list>               <dbl>   <dbl>
    ##  1     1 <tibble [30 × 2]>   2.72    0.0317
    ##  2     1 <tibble [30 × 2]>   3.67    0.0209
    ##  3     1 <tibble [30 × 2]>   2.54    0.0625
    ##  4     1 <tibble [30 × 2]>   0.0787  0.960 
    ##  5     1 <tibble [30 × 2]>   0.150   0.886 
    ##  6     1 <tibble [30 × 2]>   0.0752  0.959 
    ##  7     1 <tibble [30 × 2]>   1.07    0.338 
    ##  8     1 <tibble [30 × 2]>  -0.940   0.630 
    ##  9     1 <tibble [30 × 2]>   1.51    0.310 
    ## 10     1 <tibble [30 × 2]>   1.77    0.241 
    ## # … with 50 more rows
…
